{"1": {"down": "5737", "wounded": "0", "status": "red", "up": "1"},
"2": {"down": "5737", "wounded": "0", "status": "red", "up": "1"},
"3": {"down": "5737", "wounded": "0", "status": "red", "up": "1"},
"4": {"down": "5737", "wounded": "0", "status": "red", "up": "1"},
"5": {"down": "5737", "wounded": "0", "status": "red", "up": "1"},
"6": {"down": "5737", "wounded": "0", "status": "red", "up": "1"},
"7": {"down": "5738", "wounded": "0", "status": "red", "up": "1"},
"8": {"down": "5738", "wounded": "0", "status": "red", "up": "1"},
"9": {"down": "5738", "wounded": "0", "status": "red", "up": "1"},
"10": {"down": "5738", "wounded": "0", "status": "red", "up": "1"},
"11": {"down": "5738", "wounded": "0", "status": "red", "up": "1"},
"12": {"down": "1416", "wounded": "4322", "status": "yellow", "up": "1"},
"13": {"down": "529", "wounded": "4527", "status": "yellow", "up": "683"},
"14": {"down": "5738", "wounded": "0", "status": "red", "up": "1"},
"15": {"down": "5738", "wounded": "0", "status": "red", "up": "1"},
"16": {"down": "5738", "wounded": "0", "status": "red", "up": "1"},
"17": {"down": "5738", "wounded": "0", "status": "red", "up": "1"},
"18": {"down": "5738", "wounded": "0", "status": "red", "up": "1"},
"19": {"down": "5738", "wounded": "0", "status": "red", "up": "1"},
"20": {"down": "5738", "wounded": "0", "status": "red", "up": "1"},
"21": {"down": "5738", "wounded": "0", "status": "red", "up": "1"},
"22": {"down": "5738", "wounded": "0", "status": "red", "up": "1"},
"23": {"down": "5738", "wounded": "0", "status": "red", "up": "1"},
"24": {"down": "5738", "wounded": "0", "status": "red", "up": "1"},
"25": {"down": "5738", "wounded": "0", "status": "red", "up": "1"},
"26": {"down": "5738", "wounded": "0", "status": "red", "up": "1"},
"27": {"down": "5738", "wounded": "0", "status": "red", "up": "1"},
"28": {"down": "5738", "wounded": "0", "status": "red", "up": "1"},
"29": {"down": "5738", "wounded": "0", "status": "red", "up": "1"},
"30": {"down": "5738", "wounded": "0", "status": "red", "up": "1"},
"31": {"down": "5738", "wounded": "0", "status": "red", "up": "1"},
"32": {"down": "5738", "wounded": "0", "status": "red", "up": "1"},
"33": {"down": "5738", "wounded": "0", "status": "red", "up": "1"},
"34": {"down": "5738", "wounded": "0", "status": "red", "up": "1"},
"35": {"down": "5738", "wounded": "0", "status": "red", "up": "1"},
"36": {"down": "5738", "wounded": "0", "status": "red", "up": "1"},
"37": {"down": "5738", "wounded": "0", "status": "red", "up": "1"},
"38": {"down": "5738", "wounded": "0", "status": "red", "up": "1"},
"39": {"down": "4857", "wounded": "881", "status": "yellow", "up": "1"},
"40": {"down": "4593", "wounded": "1145", "status": "yellow", "up": "1"}
}
