{
   "5": {
      "title": "Ensure availability of following machines: kaliX.ban workstation, hostingX.ban web server, fwX.ban firewall",
      "goal": "General information about the machines is listed below:\n   <br/><br/> \n**During the competition:**\n* all machines must have IPv4 addresses, that are reachable via the GAMENET network\n* zabbix agents must be enabled and running\n* port 10050 must be open\n* the SSH service must stay on default port 22\n* key based authentication must be enabled\n* adding new authentication keys must be enabled\n\n**During the competition you’re not allowed to:**\n* remove keys used for authentication (they are used for grading - neutral)\n* alter IPv4 addresses given to the machines",
      "active":true,
      "divider":true
  },
  "10": {
                "title": "kaliX.ban" ,
                "goal": "**Kali Linux** is a workstation where you possess administrator’s permissions and are allowed to install additional software. Valid username to log in to the system is *“root”* with the password *“student”*.\n <br/> \n **Colour map on the scoreboard:**\n <br/> \n **Green and up:** Kali Linux workstation is accessible via ping or SSH connection through the GAMENET network.\n<br/>\n **Red and down:** Kali Linux workstation is not accessible via ping or SSH connection through the GAMENET network.",
                "file": "json/taskKali.json",
                "active":true,
                "status": "ud"
        } ,
        "20": {
                "title": "hostingX.ban" ,
                "goal": "**hostingX.ban** is a web hosting server for the following web pages: **govX.ban**, **shopX.ban**, **blogX.ban**. This is also a server where you possess administrator’s permissions which can be activated using the sudo command. Valid username to log in to the system is *“student”* with the password *“student”*.\n \t<br/>\n**Additional mandatory services to be enabled and active at all times:**\n* Web server listening to ports 80 and 443 via GAMENET network\n \t <br/>\n**Colour map on the scoreboard:**\n<br/>\n**Green and up:** hostingX.ban machine is accessible via ping or SSH connection through the GAMENET network.\n <br/>\n**Red and down:** hostingX.ban machine is not accessible via ping or SSH connection through the GAMENET network.",
                "file": "json/taskHosting.json",
                "active":true,
                "status": "ud"
        } ,
        "30": {
                "title": "fwX.ban" ,
                "goal": "**fwX.ban** is a firewall that you manage as an administrator. This is also a machine where you possess administrators permissions which can be activated using the sudo command. Valid username to log in to the system is *“student”* with the password *“student”*. \n <br/>\nfwX.ban is used for internal services and access to those internal services has to remain enabled at all times. You are not allowed to limit the accessibility to these internal services in the fwX.ban settings, because all internal services that are inaccessible via fwX.ban will be marked as red/down in the scoring system.\n <br/>\n <br/> \n**On fwX.ban you are NOT allowed to: **\n* disable network access to internal services via the firewall\n <br/>\n**On fwX.ban you are allowed to: **\n* disable access to services that have not been listed previously\n* install IDS or IPS software\n* install any other non proprietary firewall software\n <br/>\n**Colour map on the scoreboard:**\n <br/>\n**Green and up:** fwX.ban machine is accessible via ping or SSH connection through the GAMENET network.\n <br/>\n**Red and down:** fwX.ban is not accessible via ping or SSH connection through the GAMENET network.",
                "file": "json/taskFirewall.json",
                "active":true,
                "status": "ud"
        } ,
	"40":{ 
		"title": "Backup websites" ,
		"goal": "Backup all bananian websites from *hostingX.ban* to administrator’s workstation *kaliX.ban.*\n Store backup files into directory */backup* (kaliX.ban)\n* Find out all websites (from the web server configuration)\n* Backup web files into */backup* on *kaliX.ban*\n* Backup all mysql databases into separate files, because you may need to restore just one database at a time.\n* Although it’s not part of the grading process, it is advised to do regular backups (add timestamps to filenames/dirnames), because this might come in handy for restoring defaced websites in future objectives",
		"file": "json/taskBackup.json",
                "active":true,
                "status": "udw"
		},
    "45": {
        "title": "Ensure integrity, availability and functionality of following websites: govX.ban, shopX.ban",
        "goal": "",
        "active":true,
        "divider":true
    },
	"50":{ 
		"title": "govX.ban" ,
		"goal": "**govX.ban** is the Bananian government’s official website you administer. \n <br/>\n**Colour map on the scoreboard:**\n <br/>\n**Green and up:** The main user interface functionalities work and the web site serves its purpose.\n <br/>\n**Red and down:** The main user interface functionalities do not work and the web site does not serve its purpose.",
		"file": "json/govX.ban.json",
                "active":true,
                "status": "ud"
	} ,
  	"55":{
		"title": "shopX.ban" ,
		"goal": "**shopX.ban** is the Bananian number one online shop you administer. The valid username to log on to the web site’s administator’s panel is *“admin”* with the password *“adminPW”*. The valid username to log on to the web site as a simple user is *“test”* with the password *“testPW”*. **You may not alter these users and passwords.**\n <br/>\n**Colour map on the scoreboard:**\n <br/>\n**Green and up:** Main user interface functionalities work and users are able to purchase goods.\n <br/>\n**Red and down:** Main user interface functionalities do not work and users are not able to purchase goods.",
		"file": "json/shopX.ban.json",
                "active":true,
                "status": "ud"
	} 

}
