{"1": {"down": "0", "wounded": "0", "status": "gray", "up": "0"},
"2": {"down": "0", "wounded": "0", "status": "gray", "up": "0"},
"3": {"down": "0", "wounded": "0", "status": "gray", "up": "0"},
"4": {"down": "0", "wounded": "0", "status": "gray", "up": "0"},
"5": {"down": "0", "wounded": "0", "status": "gray", "up": "0"},
"6": {"down": "0", "wounded": "0", "status": "gray", "up": "0"},
"7": {"down": "0", "wounded": "0", "status": "gray", "up": "0"},
"8": {"down": "0", "wounded": "0", "status": "gray", "up": "0"},
"9": {"down": "0", "wounded": "0", "status": "gray", "up": "0"},
"10": {"down": "0", "wounded": "0", "status": "gray", "up": "0"},
"11": {"down": "0", "wounded": "0", "status": "gray", "up": "0"},
"12": {"down": "0", "wounded": "0", "status": "gray", "up": "0"},
"13": {"down": "0", "wounded": "0", "status": "gray", "up": "0"},
"14": {"down": "0", "wounded": "0", "status": "gray", "up": "0"},
"15": {"down": "0", "wounded": "0", "status": "gray", "up": "0"},
"16": {"down": "0", "wounded": "0", "status": "gray", "up": "0"},
"17": {"down": "0", "wounded": "0", "status": "gray", "up": "0"},
"18": {"down": "0", "wounded": "0", "status": "gray", "up": "0"},
"19": {"down": "0", "wounded": "0", "status": "gray", "up": "0"},
"20": {"down": "0", "wounded": "0", "status": "gray", "up": "0"},
"21": {"down": "0", "wounded": "0", "status": "gray", "up": "0"},
"22": {"down": "0", "wounded": "0", "status": "gray", "up": "0"},
"23": {"down": "0", "wounded": "0", "status": "gray", "up": "0"},
"24": {"down": "0", "wounded": "0", "status": "gray", "up": "0"},
"25": {"down": "0", "wounded": "0", "status": "gray", "up": "0"},
"26": {"down": "0", "wounded": "0", "status": "gray", "up": "0"},
"27": {"down": "0", "wounded": "0", "status": "gray", "up": "0"},
"28": {"down": "0", "wounded": "0", "status": "gray", "up": "0"},
"29": {"down": "0", "wounded": "0", "status": "gray", "up": "0"},
"30": {"down": "0", "wounded": "0", "status": "gray", "up": "0"},
"31": {"down": "0", "wounded": "0", "status": "gray", "up": "0"},
"32": {"down": "0", "wounded": "0", "status": "gray", "up": "0"},
"33": {"down": "0", "wounded": "0", "status": "gray", "up": "0"},
"34": {"down": "0", "wounded": "0", "status": "gray", "up": "0"},
"35": {"down": "0", "wounded": "0", "status": "gray", "up": "0"},
"36": {"down": "0", "wounded": "0", "status": "gray", "up": "0"},
"37": {"down": "0", "wounded": "0", "status": "gray", "up": "0"},
"38": {"down": "0", "wounded": "0", "status": "gray", "up": "0"},
"39": {"down": "0", "wounded": "0", "status": "gray", "up": "0"},
"40": {"down": "0", "wounded": "0", "status": "gray", "up": "0"}
}